HW 08 Grade

Compiles                        20pts
Comments                        10pts
    -5: no method comments
Shuffle method                  20pts
    -5: shuffle print out contains duplicates
getHand method                  20pts
printArray method               20pts
numCards reaches end of deck    10pts

Total points: 90%